{
  "name": "puppet-kickstart",
  "version": "0.1.0",
  "author": "lemonize",
  "summary": "Single kickstart instance",
  "license": "Apache 2.0",
  "source": "bitbucket",
  "project_page": "nowhere",
  "issues_url": "bitbucket",
  "dependencies": [
    {
      "name": "puppetlabs-stdlib",
      "version_range": ">= 1.0.0"
    }
  ]
}

